<svg xmlns="http://www.w3.org/2000/svg" xmlns:xlink="http://www.w3.org/1999/xlink" width="821" height="756" viewBox="0 0 821 756">
  <defs>
    <clipPath id="clip-path">
      <rect id="Rectangle_4666" data-name="Rectangle 4666" width="821" height="756" transform="translate(545)" fill="#fff" stroke="#707070" stroke-width="1"/>
    </clipPath>
  </defs>
  <g id="Mask_Group_12" data-name="Mask Group 12" transform="translate(-545)" clip-path="url(#clip-path)">
    <path id="shape_SHAPE:shapes_07._Organic_Organic_-_Shape_12_" data-name="shape [SHAPE:shapes/07. Organic/Organic - Shape 12]" d="M726.752,2701.637C648.7,2599.488,463.623,2567.373,415.17,2445.094c-57.94-146.257,108.927-247.069,218.207-291.061,266.979-107.479,681.716-17.656,879.115,196.258,215.518,233.548,105.823,675.067-182.534,800.029-132.077,57.24-292.73,42.029-399.667-60.08C821.071,2986.007,816.806,2819.534,726.752,2701.637Z" transform="translate(1061.608 -2504.439) rotate(22)" fill="#cedfd0"/>
  </g>
</svg>
